{
  "index_patterns": [
    "error-*"
  ],
  "settings": {
    "number_of_shards": "1",
    "refresh_interval": "5s",
    "index.lifecycle.name": "my_policy",
    "index.lifecycle.rollover_alias": "error",
    "index.lifecycle.parse_origination_date": true
  },
  "aliases": {
    
  },
  "mappings": {
  	"properties": {
		"Exception": {
			"type": "text"
		}
	} 
  }
}
