{
  "index_patterns": [
    "rabbitmq-*"
  ],
  "settings": {
    "number_of_shards": "1",
    "refresh_interval": "5s",
    "index.lifecycle.name": "my_policy",
    "index.lifecycle.rollover_alias": "rabbitmq",
    "index.lifecycle.parse_origination_date": true
  },
  "aliases": {
    
  },
  "mappings": {
  }
}
